{
  "AWSTemplateFormatVersion": "2010-09-09",
  "Description": "This template creates an Amazon EFS file system and mount target",
  "Parameters": {
    "VolumeName" : {
      "Description" : "The name to be used for the EFS volume",
      "Type": "String",
      "MinLength": "1",
      "Default": "luluEFSvolume"
    },
    "MountPoint" : {
      "Description" : "The Linux mount point for the EFS volume",
      "Type": "String",
      "MinLength": "1",
      "Default": "luluEFSvolume"
    },
    "VPCID": {
        "Description": "ID of the VPC that you want to provision EFS into",
        "Type": "AWS::EC2::VPC::Id"
    },
    "Subnet1": {
        "Description": "ID of the public subnet 1 that you want to provision the first Remote Desktop Gateway into (e.g., subnet-a0246dcd)",
        "Type": "AWS::EC2::Subnet::Id"
    },
    "Subnet2": {
        "Description": "ID of the public subnet 2 you want to provision the second Remote Desktop Gateway into (e.g., subnet-e3246d8e)",
        "Type": "AWS::EC2::Subnet::Id"
    },
    "EFSCIDR": {
        "AllowedPattern": "^(([0-9]|[1-9][0-9]|1[0-9]{2}|2[0-4][0-9]|25[0-5])\\.){3}([0-9]|[1-9][0-9]|1[0-9]{2}|2[0-4][0-9]|25[0-5])(\\/([0-9]|[1-2][0-9]|3[0-2]))$",
        "Description": "Allowed CIDR Block for access to the EFS",
        "Type": "String",
        "Default": "10.201.28.0/24"
    }
  },
  "Resources": {
    "MountTargetSecurityGroup": {
      "Type": "AWS::EC2::SecurityGroup",
      "Properties": {
        "VpcId": { "Ref": "VPCID" },
        "GroupDescription": "Security group for mount target",
        "SecurityGroupIngress": [
          {
            "IpProtocol": "tcp",
            "FromPort": "2049",
            "ToPort": "2049",
            "CidrIp": {"Ref": "EFSCIDR" }
          }
        ]
      }
    },
    "FileSystem": {
      "Type": "AWS::EFS::FileSystem",
      "Properties": {
        "PerformanceMode": "generalPurpose",
        "FileSystemTags": [
          {
            "Key": "Name",
            "Value": { "Ref" : "VolumeName" }
          }
        ]
      }
    },
    "MountTarget1": {
      "Type": "AWS::EFS::MountTarget",
      "Properties": {
        "FileSystemId": { "Ref": "FileSystem" },
        "SubnetId": { "Ref": "Subnet1" },
        "SecurityGroups": [ { "Ref": "MountTargetSecurityGroup" } ]
      }
    },
    "MountTarget2": {
      "Type": "AWS::EFS::MountTarget",
      "Properties": {
        "FileSystemId": { "Ref": "FileSystem" },
        "SubnetId": { "Ref": "Subnet2" },
        "SecurityGroups": [ { "Ref": "MountTargetSecurityGroup" } ]
      }
    }
  },
  "Outputs" : {
    "MountTargetID1" : {
      "Description" : "Mount target ID",
      "Value" :  { "Ref" : "MountTarget1" },
      "Export" : { "Name" : {"Fn::Sub": "MountTargetID1"} }
    },
    "MountTargetID2" : {
      "Description" : "Mount target ID",
      "Value" :  { "Ref" : "MountTarget2" },
      "Export" : { "Name" : {"Fn::Sub": "MountTargetID2"} }
    },
    "FileSystemID" : {
      "Description" : "File system ID",
      "Value" :  { "Ref" : "FileSystem" },
      "Export" : { "Name" : {"Fn::Sub": "FileSystemID"} }
    }
  }
}
