{
    "AWSTemplateFormatVersion": "2010-09-09",
    "Description": "Creates a VPC and its dependent resources",
    "Metadata": {
        "LastUpdated": "2017-02-09 08:33:10.671534",
        "Version": "0.1"
    },
    "Parameters": {
      "VPCCIDR" : {
        "Description" : "Please enter VPCCIDR (xxx.xxx.xxx.xxx/xx):",
        "Type": "String",
        "MinLength": "1",
        "Default": "10.201.28.0/24"
      },
      "WebSubnet1" : {
        "Description" : "Please enter CIDR for WebSubnet1 (xxx.xxx.xxx.xxx/xx):",
        "Type": "String",
        "MinLength": "1",
        "Default": "10.201.28.0/27",
        "AllowedPattern": "[a-zA-Z0-9]+\\..+"
      },
      "WebSubnet2" : {
        "Description" : "Please enter CIDR for WebSubnet2 (xxx.xxx.xxx.xxx/xx):",
        "Type": "String",
        "MinLength": "1",
        "Default": "10.201.28.32/27",
        "AllowedPattern": "[a-zA-Z0-9]+\\..+"
      },
      "AppSubnet1" : {
        "Description" : "Please enter CIDR for AppSubnet1 (xxx.xxx.xxx.xxx/xx):",
        "Type": "String",
        "MinLength": "1",
        "Default": "10.201.28.64/26",
        "AllowedPattern": "[a-zA-Z0-9]+\\..+"
      },
      "AppSubnet2" : {
        "Description" : "Please enter CIDR for AppSubnet2 (xxx.xxx.xxx.xxx/xx):",
        "Type": "String",
        "MinLength": "1",
        "Default": "10.201.28.128/26",
        "AllowedPattern": "[a-zA-Z0-9]+\\..+"
      },
      "DataSubnet1" : {
        "Description" : "Please enter CIDR for DataSubnet1 (xxx.xxx.xxx.xxx/xx):",
        "Type": "String",
        "MinLength": "1",
        "Default": "10.201.28.192/27",
        "AllowedPattern": "[a-zA-Z0-9]+\\..+"
      },
      "DataSubnet2" : {
        "Description" : "Please enter CIDR for DataSubnet2 (xxx.xxx.xxx.xxx/xx):",
        "Type": "String",
        "MinLength": "1",
        "Default": "10.201.28.224/27",
        "AllowedPattern": "[a-zA-Z0-9]+\\..+"
      }
    },
    "Resources": {
    "InternetGateway" : {
       "Type" : "AWS::EC2::InternetGateway",
       "Properties" : {
          "Tags" : [ {"Key" : "Name", "Value" : {"Fn::Join": ["-",[ {"Ref": "AWS::StackName"},"InternetGateway"]]}} ]
       }
    },

    "AttachGateway" : {
       "Type" : "AWS::EC2::VPCGatewayAttachment",
       "Properties" : {
          "VpcId" : { "Ref" : "VPC" },
          "InternetGatewayId" : { "Ref" : "InternetGateway" }
       }
    },
       
      "vgwLuluDev": {
        "Type": "AWS::EC2::VPNGateway",
        "Properties": {
          "Type": "ipsec.1",
          "Tags": [
            {
              "Key": "Name",
              "Value": {"Fn::Join": ["-",[ {"Ref": "AWS::StackName"},"vpg"]]}
            },
            {
              "Key": "transitvpc:spoke",
              "Value": "true"
            }
          ]
        },
        "DependsOn" : "VPC"
      },
      "gwLuluDev": {
        "Type": "AWS::EC2::VPCGatewayAttachment",
        "Properties": {
          "VpcId": {"Ref":"VPC"},
          "VpnGatewayId": {
            "Ref": "vgwLuluDev"
          }
        },
        "DependsOn" : "VPC"
      },
      "VPC": {
          "Properties": {
              "CidrBlock": {"Ref":"VPCCIDR"},
              "EnableDnsHostnames": "true",
              "EnableDnsSupport": "true",
              "Tags": [
                  {
                      "Key": "DataClass",
                      "Value": ""
                  },
                  {
                      "Key": "Environment",
                      "Value": ""
                  },
                  {
                      "Key": "Name","Value": {"Fn::Join": ["-",[ {"Ref": "AWS::StackName"},"VPC"]]}
                  },
                  {
                      "Key": "Owner",
                      "Value": ""
                  },
                  {
                      "Key": "ProjectID",
                      "Value": ""
                  }
              ]
          },
          "Type": "AWS::EC2::VPC"
        },
        "WebSubnet01": {
            "Properties": {
                "AvailabilityZone": "us-east-1a",
                "CidrBlock": {"Ref":"WebSubnet1"},
                "Tags": [
                    {
                        "Key": "DataClass",
                        "Value": "Silver"
                    },
                    {
                        "Key": "Environment",
                        "Value": "Dev"
                    },
                    {
                        "Key": "Name",
                        "Value": {
                            "Fn::Join": [
                                "-",
                                [
                                    {
                                        "Ref": "AWS::StackName"
                                    },
                                    "WebSubnet01"
                                ]
                            ]
                        }
                    },
                    {
                        "Key": "ProjectID",
                        "Value": "Lululemon"
                    }
                ],
                "VpcId": {
                    "Ref": "VPC"
                }
            },
            "Type": "AWS::EC2::Subnet"
        },
        "WebSubnet1RouteTableAssociation": {
            "Properties": {
                "RouteTableId": {
                    "Ref": "WebSubnetRouteTable1"
                },
                "SubnetId": {
                    "Ref": "WebSubnet01"
                }
            },
            "Type": "AWS::EC2::SubnetRouteTableAssociation"
        },
        "WebSubnet02": {
            "Properties": {
                "AvailabilityZone": "us-east-1b",
                "CidrBlock": {"Ref":"WebSubnet2"},
                "Tags": [
                    {
                        "Key": "DataClass",
                        "Value": "Silver"
                    },
                    {
                        "Key": "Environment",
                        "Value": "Dev"
                    },
                    {
                        "Key": "Name",
                        "Value": {
                            "Fn::Join": [
                                "-",
                                [
                                    {
                                        "Ref": "AWS::StackName"
                                    },
                                    "WebSubnet02"
                                ]
                            ]
                        }
                    },
                    {
                        "Key": "ProjectID",
                        "Value": "Lululemon"
                    }
                ],
                "VpcId": {
                    "Ref": "VPC"
                }
            },
            "Type": "AWS::EC2::Subnet"
        },
        "WebSubnet2RouteTableAssociation": {
            "Properties": {
                "RouteTableId": {
                    "Ref": "WebSubnetRouteTable2"
                },
                "SubnetId": {
                    "Ref": "WebSubnet02"
                }
            },
            "Type": "AWS::EC2::SubnetRouteTableAssociation"
        },
        "AppSubnet01": {
            "Properties": {
                "AvailabilityZone": "us-east-1a",
                "CidrBlock": {"Ref":"AppSubnet1"},
                "Tags": [
                    {
                        "Key": "DataClass",
                        "Value": "Silver"
                    },
                    {
                        "Key": "Environment",
                        "Value": "Dev"
                    },
                    {
                        "Key": "Name",
                        "Value": {
                            "Fn::Join": [
                                "-",
                                [
                                    {
                                        "Ref": "AWS::StackName"
                                    },
                                    "AppSubnet01"
                                ]
                            ]
                        }
                    },
                    {
                        "Key": "ProjectID",
                        "Value": "Lululemon"
                    }
                ],
                "VpcId": {
                    "Ref": "VPC"
                }
            },
            "Type": "AWS::EC2::Subnet"
        },
        "AppSubnet1RouteTableAssociation": {
            "Properties": {
                "RouteTableId": {
                    "Ref": "AppSubnetRouteTable1"
                },
                "SubnetId": {
                    "Ref": "AppSubnet01"
                }
            },
            "Type": "AWS::EC2::SubnetRouteTableAssociation"
        },
        "AppSubnet02": {
            "Properties": {
                "AvailabilityZone": "us-east-1b",
                "CidrBlock": {"Ref":"AppSubnet2"},
                "Tags": [
                    {
                        "Key": "DataClass",
                        "Value": "Silver"
                    },
                    {
                        "Key": "Environment",
                        "Value": "Dev"
                    },
                    {
                        "Key": "Name",
                        "Value": {
                            "Fn::Join": [
                                "-",
                                [
                                    {
                                        "Ref": "AWS::StackName"
                                    },
                                    "AppSubnet02"
                                ]
                            ]
                        }
                    },
                    {
                        "Key": "ProjectID",
                        "Value": "Lululemon"
                    }
                ],
                "VpcId": {
                    "Ref": "VPC"
                }
            },
            "Type": "AWS::EC2::Subnet"
        },
        "AppSubnet2RouteTableAssociation": {
            "Properties": {
                "RouteTableId": {
                    "Ref": "AppSubnetRouteTable2"
                },
                "SubnetId": {
                    "Ref": "AppSubnet02"
                }
            },
            "Type": "AWS::EC2::SubnetRouteTableAssociation"
        },
        "DataSubnet01": {
            "Properties": {
                "AvailabilityZone": "us-east-1a",
                "CidrBlock": {"Ref":"DataSubnet1"},
                "Tags": [
                    {
                        "Key": "DataClass",
                        "Value": "Silver"
                    },
                    {
                        "Key": "Environment",
                        "Value": "Dev"
                    },
                    {
                        "Key": "Name",
                        "Value": {
                            "Fn::Join": [
                                "-",
                                [
                                    {
                                        "Ref": "AWS::StackName"
                                    },
                                    "DataSubnet01"
                                ]
                            ]
                        }
                    },
                    {
                        "Key": "ProjectID",
                        "Value": "Lululemon"
                    }
                ],
                "VpcId": {
                    "Ref": "VPC"
                }
            },
            "Type": "AWS::EC2::Subnet"
        },
        "DataSubnet1RouteTableAssociation": {
            "Properties": {
                "RouteTableId": {
                    "Ref": "DataSubnetRouteTable1"
                },
                "SubnetId": {
                    "Ref": "DataSubnet01"
                }
            },
            "Type": "AWS::EC2::SubnetRouteTableAssociation"
        },
        "DataSubnet02": {
            "Properties": {
                "AvailabilityZone": "us-east-1b",
                "CidrBlock": {"Ref":"DataSubnet2"},
                "Tags": [
                    {
                        "Key": "DataClass",
                        "Value": "Silver"
                    },
                    {
                        "Key": "Environment",
                        "Value": "Dev"
                    },
                    {
                        "Key": "Name",
                        "Value": {
                            "Fn::Join": [
                                "-",
                                [
                                    {
                                        "Ref": "AWS::StackName"
                                    },
                                    "DataSubnet02"
                                ]
                            ]
                        }
                    },
                    {
                        "Key": "Owner",
                        "Value": "Scalar"
                    },
                    {
                        "Key": "ProjectID",
                        "Value": "Lululemon"
                    }
                ],
                "VpcId": {
                    "Ref": "VPC"
                }
            },
            "Type": "AWS::EC2::Subnet"
        },
        "DataSubnet2RouteTableAssociation": {
            "Properties": {
                "RouteTableId": {
                    "Ref": "DataSubnetRouteTable2"
                },
                "SubnetId": {
                    "Ref": "DataSubnet02"
                }
            },
            "Type": "AWS::EC2::SubnetRouteTableAssociation"
        },
        "WebSubnetRouteTable1": {
            "Properties": {
                "Tags": [
                    {
                        "Key": "DataClass",
                        "Value": "Silver"
                    },
                    {
                        "Key": "Environment",
                        "Value": "Dev"
                    },
                    {
                        "Key": "Name",
                        "Value": {
                            "Fn::Join": [
                                "-",
                                [
                                    {
                                        "Ref": "AWS::StackName"
                                    },
                                    "WebSubnetRouteTable1"
                                ]
                            ]
                        }
                    },
                    {
                        "Key": "ProjectID",
                        "Value": "Lululemon"
                    }
                ],
                "VpcId": {
                    "Ref": "VPC"
                }
            },
            "Type": "AWS::EC2::RouteTable"
        },
        "WebSubnetRouteTable2": {
            "Properties": {
                "Tags": [
                    {
                        "Key": "DataClass",
                        "Value": "Silver"
                    },
                    {
                        "Key": "Environment",
                        "Value": "Dev"
                    },
                    {
                        "Key": "Name",
                        "Value": {
                            "Fn::Join": [
                                "-",
                                [
                                    {
                                        "Ref": "AWS::StackName"
                                    },
                                    "WebSubnetRouteTable2"
                                ]
                            ]
                        }
                    },
                    {
                        "Key": "ProjectID",
                        "Value": "Lululemon"
                    }
                ],
                "VpcId": {
                    "Ref": "VPC"
                }
            },
            "Type": "AWS::EC2::RouteTable"
        },
        "AppSubnetRouteTable1": {
            "Properties": {
                "Tags": [
                    {
                        "Key": "DataClass",
                        "Value": "Silver"
                    },
                    {
                        "Key": "Environment",
                        "Value": "Dev"
                    },
                    {
                        "Key": "Name",
                        "Value": {
                            "Fn::Join": [
                                "-",
                                [
                                    {
                                        "Ref": "AWS::StackName"
                                    },
                                    "AppSubnetRouteTable1"
                                ]
                            ]
                        }
                    },
                    {
                        "Key": "ProjectID",
                        "Value": "Lululemon"
                    }
                ],
                "VpcId": {
                    "Ref": "VPC"
                }
            },
            "Type": "AWS::EC2::RouteTable"
        },
        "AppSubnetRouteTable2": {
            "Properties": {
                "Tags": [
                    {
                        "Key": "DataClass",
                        "Value": "Silver"
                    },
                    {
                        "Key": "Environment",
                        "Value": "Dev"
                    },
                    {
                        "Key": "Name",
                        "Value": {
                            "Fn::Join": [
                                "-",
                                [
                                    {
                                        "Ref": "AWS::StackName"
                                    },
                                    "AppSubnetRouteTable2"
                                ]
                            ]
                        }
                    },
                    {
                        "Key": "ProjectID",
                        "Value": "Lululemon"
                    }
                ],
                "VpcId": {
                    "Ref": "VPC"
                }
            },
            "Type": "AWS::EC2::RouteTable"
        },
        "DataSubnetRouteTable1": {
            "Properties": {
                "Tags": [
                    {
                        "Key": "DataClass",
                        "Value": "Silver"
                    },
                    {
                        "Key": "Environment",
                        "Value": "Dev"
                    },
                    {
                        "Key": "Name",
                        "Value": {
                            "Fn::Join": [
                                "-",
                                [
                                    {
                                        "Ref": "AWS::StackName"
                                    },
                                    "DataSubnetRouteTable1"
                                ]
                            ]
                        }
                    },
                    {
                        "Key": "ProjectID",
                        "Value": "Lululemon"
                    }
                ],
                "VpcId": {
                    "Ref": "VPC"
                }
            },
            "Type": "AWS::EC2::RouteTable"
        },
        "DataSubnetRouteTable2": {
            "Properties": {
                "Tags": [
                    {
                        "Key": "DataClass",
                        "Value": "Silver"
                    },
                    {
                        "Key": "Environment",
                        "Value": "Dev"
                    },
                    {
                        "Key": "Name",
                        "Value": {
                            "Fn::Join": [
                                "-",
                                [
                                    {
                                        "Ref": "AWS::StackName"
                                    },
                                    "DataSubnetRouteTable2"
                                ]
                            ]
                        }
                    },
                    {
                        "Key": "ProjectID",
                        "Value": "Lululemon"
                    }
                ],
                "VpcId": {
                    "Ref": "VPC"
                }
            },
            "Type": "AWS::EC2::RouteTable"
        },

        "WebSubnet01DefaultRoute" : {
            "Type" : "AWS::EC2::Route",
            "DependsOn" : "gwLuluDev",
            "Properties" : {
                "RouteTableId" : { "Ref" : "WebSubnetRouteTable1" },
                "DestinationCidrBlock" : "0.0.0.0/0",
                "GatewayId" : { "Ref" : "vgwLuluDev" }
            }
        },

        "WebSubnet02DefaultRoute" : {
            "Type" : "AWS::EC2::Route",
            "DependsOn" : "gwLuluDev",
            "Properties" : {
                "RouteTableId" : { "Ref" : "WebSubnetRouteTable2" },
                "DestinationCidrBlock" : "0.0.0.0/0",
                "GatewayId" : { "Ref" : "vgwLuluDev" }
            }
        },  

        "AppSubnet01DefaultRoute" : {
            "Type" : "AWS::EC2::Route",
            "DependsOn" : "gwLuluDev",
            "Properties" : {
                "RouteTableId" : { "Ref" : "AppSubnetRouteTable1" },
                "DestinationCidrBlock" : "0.0.0.0/0",
                "GatewayId" : { "Ref" : "vgwLuluDev" }
            }
        },

        "AppSubnet02DefaultRoute" : {
            "Type" : "AWS::EC2::Route",
            "DependsOn" : "gwLuluDev",
            "Properties" : {
                "RouteTableId" : { "Ref" : "AppSubnetRouteTable2" },
                "DestinationCidrBlock" : "0.0.0.0/0",
                "GatewayId" : { "Ref" : "vgwLuluDev" }
            }
        },

        "DataSubnet01DefaultRoute" : {
            "Type" : "AWS::EC2::Route",
            "DependsOn" : "gwLuluDev",
            "Properties" : {
                "RouteTableId" : { "Ref" : "DataSubnetRouteTable1" },
                "DestinationCidrBlock" : "0.0.0.0/0",
                "GatewayId" : { "Ref" : "vgwLuluDev" }
            }
        },

        "DataSubnet02DefaultRoute" : {
            "Type" : "AWS::EC2::Route",
            "DependsOn" : "gwLuluDev",
            "Properties" : {
                "RouteTableId" : { "Ref" : "DataSubnetRouteTable2" },
                "DestinationCidrBlock" : "0.0.0.0/0",
                "GatewayId" : { "Ref" : "vgwLuluDev" }
            }
        },

        "S3VPCEndpoint" : {
            "Type" : "AWS::EC2::VPCEndpoint",
            "Properties" : {
              "PolicyDocument" : {
                "Version":"2012-10-17",
                "Statement":[{
                  "Effect":"Allow",
                  "Principal": "*",
                  "Action":["s3:GetObject"],
                  "Resource":["arn:aws:s3:::*/*"]
                }]
              },
              "RouteTableIds" : [ {"Ref" : "WebSubnetRouteTable1"}, {"Ref" : "WebSubnetRouteTable2"}, {"Ref" : "AppSubnetRouteTable1"}, {"Ref" : "AppSubnetRouteTable2"} ],
              "ServiceName" : { "Fn::Join": [ "", [ "com.amazonaws.", { "Ref": "AWS::Region" }, ".s3" ] ] },
              "VpcId" : {"Ref" : "VPC"}
            }
        }
    },


    "Outputs": {
        "VPCCIDRRange": {
            "Description": "VPCCIDR Range",
            "Value": {"Ref":"VPCCIDR"},
            "Export" : { "Name" : {"Fn::Sub": "${AWS::StackName}-VPCCIDR" }}
        },
        "VpcId": {
            "Description": "VPC Id of the newly created VPC",
            "Value": {"Ref": "VPC"},
            "Export" : { "Name" : {"Fn::Sub": "${AWS::StackName}-VPCID" }}
        },
        "WebSubnet01": {
            "Description": "Subnet Id of WebSubnet01",
            "Value": {"Ref": "WebSubnet01"},
            "Export" : { "Name" : {"Fn::Sub": "${AWS::StackName}-WebSubnet01" }}
        },
        "WebSubnet02": {
            "Description": "Subnet Id of WebSubnet02",
            "Value": {"Ref": "WebSubnet02"},
            "Export" : { "Name" : {"Fn::Sub": "${AWS::StackName}-WebSubnet02" }}
        },
        "AppSubnet01": {
            "Description": "Subnet Id of WebSubnet01",
            "Value": {"Ref": "AppSubnet01"},
            "Export" : { "Name" : {"Fn::Sub": "${AWS::StackName}-AppSubnet01" }}
        },
        "AppSubnet02": {
            "Description": "Subnet Id of WebSubnet02",
            "Value": {"Ref": "AppSubnet02"},
            "Export" : { "Name" : {"Fn::Sub": "${AWS::StackName}-AppSubnet02" }}
        },  
        "DataSubnet01": {
            "Description": "Subnet Id of DataSubnet01",
            "Value": {"Ref": "DataSubnet01"},
            "Export" : { "Name" : {"Fn::Sub": "${AWS::StackName}-DataSubnet01" }}
        },
        "DataSubnet02": {
            "Description": "Subnet Id of DataSubnet02",
            "Value": {"Ref": "DataSubnet02"},
            "Export" : { "Name" : {"Fn::Sub": "${AWS::StackName}-DataSubnet02" }}
        }                         
    }
}
