{
  "AWSTemplateFormatVersion" : "2010-09-09",

  "Description" : "Creates the Lululemon Oracle ATG base infrastructure. EC2/RHEL 6.8, ELB/ALB, OracleRDS",

  "Parameters" : {
    "KeyName" : {
      "Description" : "Name of an existing EC2 Keypair to enable SSH access into the server",
      "Type" : "AWS::EC2::KeyPair::KeyName",
      "MinLength": "1",
      "MaxLength": "64",
      "AllowedPattern" : "[-_ a-zA-Z0-9]*",
      "ConstraintDescription" : "can contain only alphanumeric characters, spaces, dashes and underscores."
    },
    "InstanceType" : {
      "Description" : "The type of EC2 instance to launch",
      "Type" : "String",
      "Default" : "m4.large",
      "AllowedValues" : [ "t2.micro","t2.small","t2.medium","t2.large","m4.large","m3.medium","m3.large"],
      "ConstraintDescription" : "must be a valid and allowed EC2 instance type."
    },
    "VPCID": {
      "Description": "ID of the VPC where you want to provision the servers.",
      "Type": "AWS::EC2::VPC::Id"
    },
    "CorpCIDR" : {
      "Description" : "Please enter CIDR of the corporate network (xxx.xxx.xxx.xxx/xx):",
        "Type": "String",
        "MinLength": "1",
        "Default": "10.128.0.0/10"
    },
    "VPCCIDR" : {
      "Description" : "Please enter VPCCIDR (xxx.xxx.xxx.xxx/xx):",
        "Type": "String",
        "MinLength": "1",
        "Default": "10.201.28.0/24"
    },            
    "VPCCloudFormationStackName" : {
      "Description" : "The name of the VPC stack name",
      "Type": "String",
      "MinLength": "1",
      "Default": "lulu-na-vpc"
    },    
    "WebSubnet1": {
        "Description": "ID of first private web subnet (e.g., subnet-a0246dcd)",
        "Type": "AWS::EC2::Subnet::Id"
    },
    "WebSubnet2": {
        "Description": "ID of second private web subnet (e.g., subnet-a0246dcd)",
        "Type": "AWS::EC2::Subnet::Id"
    },
    "AppSubnet1": {
        "Description": "ID of first private app subnet (e.g., subnet-a0246dcd)",
        "Type": "AWS::EC2::Subnet::Id"
    },
    "AppSubnet2": {
        "Description": "ID of second private app subnet (e.g., subnet-a0246dcd)",
        "Type": "AWS::EC2::Subnet::Id"
    },
    "EFSVolumeName" : {
      "Description" : "The name to be used for the EFS volume",
      "Type": "String",
      "MinLength": "1",
      "Default": "luluEFSvolume"
    },
    "EFSNFSMountPoint" : {
      "Description" : "The Linux mount point for the EFS volume (no slash)",
      "Type": "String",
      "MinLength": "1",
      "Default": "z50"
    }
  },
  "Mappings" : {
    "AWSInstanceType2Arch" : {
      "m4.large" : {"Arch" : "64" },
      "t2.micro" : {"Arch" : "64" },
      "t2.small" : {"Arch" : "64" },
      "t2.medium" : {"Arch" : "64" },
      "t2.large" : {"Arch" : "64" },
      "m3.medium" : {"Arch" : "64" },
      "m3.large" : {"Arch" : "64" }
    },
    "AWSRegionMap" : {
      "us-east-1" : {"64" : "ami-1a0a540d", "SSLCertificateARN" : "arn:aws:acm:us-east-1:517243758018:certificate/043761c0-1889-4fb2-93d2-5fe7a09642b3", "appAMI" : "ami-352bfa23", "webAMI" : "ami-0ad5031c", "endecaLiveAMI" : "ami-1ad4020c", "endecaPreviewAMI" : "ami-1fd40209" },
      "us-west-1" : {"64" : "ami-6fb7450f", "SSLCertificateARN" : "arn:aws:acm:us-east-1:517243758018:certificate/043761c0-1889-4fb2-93d2-5fe7a09642b3", "appAMI" : "ami-352bfa23", "webAMI" : "ami-0ad5031c", "endecaLiveAMI" : "ami-1ad4020c", "endecaPreviewAMI" : "ami-1fd40209" }
    }
  },
  "Resources" : {
    "EFSMountTargetSecurityGroup": {
      "Type": "AWS::EC2::SecurityGroup",
      "Properties": {
        "VpcId": { "Ref": "VPCID" },
        "GroupDescription": "Security group for mount target",
        "SecurityGroupIngress": [
          {
            "IpProtocol": "tcp",
            "FromPort": "2049",
            "ToPort": "2049",
            "CidrIp": { "Fn::ImportValue" : {"Fn::Sub": "${VPCCloudFormationStackName}-VPCCIDR" } }
          }
        ]
      }
    },
    "EFSFileSystem": {
      "Type": "AWS::EFS::FileSystem",
      "Properties": {
        "PerformanceMode": "generalPurpose",
        "FileSystemTags": [
          {
            "Key": "Name",
            "Value": { "Ref" : "EFSVolumeName" }
          }
        ]
      }
    },
    "EFSMountTarget1": {
      "Type": "AWS::EFS::MountTarget",
      "Properties": {
        "FileSystemId": { "Ref": "EFSFileSystem" },
        "SubnetId": { "Ref": "AppSubnet1" },
        "SecurityGroups": [ { "Ref": "EFSMountTargetSecurityGroup" } ]
      }
    },
    "EFSMountTarget2": {
      "Type": "AWS::EFS::MountTarget",
      "Properties": {
        "FileSystemId": { "Ref": "EFSFileSystem" },
        "SubnetId": { "Ref": "AppSubnet2" },
        "SecurityGroups": [ { "Ref": "EFSMountTargetSecurityGroup" } ]
      }
    },

    "Ec2InstanceWeb1" : {
      "Type" : "AWS::EC2::Instance",
      "Properties" : {
        "ImageId" :  { "Fn::FindInMap" : [ "AWSRegionMap", { "Ref" : "AWS::Region" }, "webAMI"]},
        "InstanceType" : {"Ref" : "InstanceType" },
        "IamInstanceProfile" : {"Ref" : "LululemonInstanceProfile"},        
        "SecurityGroupIds" : [ { "Ref" : "LululemonVPCSecurityGroup" }, { "Ref" : "LululemonWebSecurityGroup" } ],
        "SubnetId" : {"Ref" : "WebSubnet1" },
        "KeyName" : {"Ref" : "KeyName" },
        "Tags" : [
          { 
            "Key" : "Name",
            "Value" : {"Fn::Join": ["-",[ {"Ref": "AWS::StackName"},"Web1"]]}
          }
        ],
        "UserData" : { "Fn::Base64" : { "Fn::Join" : ["", [
           "#!/bin/bash -v\n",
           "yum -y install nfs-utils aws-cfn-bootstrap\n",
           "##Check if /z50 NFS mount is mounted\n",
           "if [ -e ",{ "Ref" : "EFSNFSMountPoint" },"] ; then umount ",{ "Ref" : "EFSNFSMountPoint" }," ; rm -fR ",{ "Ref" : "EFSNFSMountPoint" },"; grep -v ",{ "Ref" : "EFSNFSMountPoint" }," '/etc/fstab' > '/etc/fstab.clean' ; mv /etc/fstab /etc/fstab.orig ; mv /etc/fstab.clean /etc/fstab ; else echo ",{ "Ref" : "EFSNFSMountPoint" }," not mounted ; fi\n",
           "cd /; mkdir ",{ "Ref" : "EFSNFSMountPoint" },"\n",
           "## Wait for EFS DNS to propagate\n",           
           "nslookup ",{ "Ref" : "EFSFileSystem" },".efs.",{ "Ref" : "AWS::Region" },".amazonaws.com; while [ $? -ne 0 ]; do sleep 10; echo waiting for dns; nslookup ",{ "Ref" : "EFSFileSystem" },".efs.",{ "Ref" : "AWS::Region" },".amazonaws.com; done\n",
           "mount -t nfs4 -o nfsvers=4.1,rsize=1048576,wsize=1048576,hard,timeo=600,retrans=2 ",{ "Ref" : "EFSFileSystem" },".efs.",{ "Ref" : "AWS::Region" },".amazonaws.com:/ /",{ "Ref" : "EFSNFSMountPoint" },"\n",
           "## Wait for EBS mount to become available before layering on file system\n",
           "while [ ! -e /dev/xvdb ]; do echo waiting for /dev/xvdb to attach; sleep 10; done\n",
           "file -s /dev/xvdb\n",
           "mkfs -t ext4 /dev/xvdb\n",
           "mkdir /opt\n",
           "mount /dev/xvdb /opt\n",
           "echo \"/dev/xvdb /opt ext4 defaults,nofail 0 2\" >> /etc/fstab\n",
           "echo \"",{ "Ref" : "EFSFileSystem" },".efs.",{ "Ref" : "AWS::Region" },".amazonaws.com:/ /",{ "Ref" : "EFSNFSMountPoint" }," nfs4 nfsvers=4.1,rsize=1048576,wsize=1048576,hard,timeo=600,retrans=2 0 0\" >> /etc/fstab\n"
        ]]}}
      },
      "DependsOn": [ "EFSMountTargetSecurityGroup","EFSFileSystem","EFSMountTarget1","EFSMountTarget2" ]
    },


    "Ec2InstanceWeb2" : {
      "Type" : "AWS::EC2::Instance",
      "Properties" : {
        "ImageId" :   { "Fn::FindInMap" : [ "AWSRegionMap", { "Ref" : "AWS::Region" }, "webAMI"]},
        "InstanceType" : {"Ref" : "InstanceType" },
        "IamInstanceProfile" : {"Ref" : "LululemonInstanceProfile"},        
        "SecurityGroupIds" : [ { "Ref" : "LululemonVPCSecurityGroup" }, { "Ref" : "LululemonWebSecurityGroup" } ],
        "SubnetId" : {"Ref" : "WebSubnet2" },
        "KeyName" : {"Ref" : "KeyName" },
        "Tags" : [
          { 
            "Key" : "Name",
            "Value" : {"Fn::Join": ["-",[ {"Ref": "AWS::StackName"},"Web2"]]}
          }
        ],
        "UserData" : { "Fn::Base64" : { "Fn::Join" : ["", [
           "#!/bin/bash -v\n",
           "yum -y install nfs-utils aws-cfn-bootstrap\n",
           "##Check if /z50 NFS mount is mounted\n",
           "if [ -e ",{ "Ref" : "EFSNFSMountPoint" },"] ; then umount ",{ "Ref" : "EFSNFSMountPoint" }," ; rm -fR ",{ "Ref" : "EFSNFSMountPoint" },"; grep -v ",{ "Ref" : "EFSNFSMountPoint" }," '/etc/fstab' > '/etc/fstab.clean' ; mv /etc/fstab /etc/fstab.orig ; mv /etc/fstab.clean /etc/fstab ; else echo ",{ "Ref" : "EFSNFSMountPoint" }," not mounted ; fi\n",           "cd /; mkdir ",{ "Ref" : "EFSNFSMountPoint" },"\n",
           "## Wait for EFS DNS to propagate\n",           
           "nslookup ",{ "Ref" : "EFSFileSystem" },".efs.",{ "Ref" : "AWS::Region" },".amazonaws.com; while [ $? -ne 0 ]; do sleep 10; echo waiting for dns; nslookup ",{ "Ref" : "EFSFileSystem" },".efs.",{ "Ref" : "AWS::Region" },".amazonaws.com; done\n",
           "mount -t nfs4 -o nfsvers=4.1,rsize=1048576,wsize=1048576,hard,timeo=600,retrans=2 ",{ "Ref" : "EFSFileSystem" },".efs.",{ "Ref" : "AWS::Region" },".amazonaws.com:/ /",{ "Ref" : "EFSNFSMountPoint" },"\n",
           "## Wait for EBS mount to become available before layering on file system\n",
           "while [ ! -e /dev/xvdb ]; do echo waiting for /dev/xvdb to attach; sleep 10; done\n",
           "file -s /dev/xvdb\n",
           "mkfs -t ext4 /dev/xvdb\n",
           "mkdir /opt\n",
           "mount /dev/xvdb /opt\n",
           "echo \"/dev/xvdb /opt ext4 defaults,nofail 0 2\" >> /etc/fstab\n",
           "echo \"",{ "Ref" : "EFSFileSystem" },".efs.",{ "Ref" : "AWS::Region" },".amazonaws.com:/ /",{ "Ref" : "EFSNFSMountPoint" }," nfs4 nfsvers=4.1,rsize=1048576,wsize=1048576,hard,timeo=600,retrans=2 0 0\" >> /etc/fstab\n"
        ]]}}
      },
      "DependsOn": [ "EFSMountTargetSecurityGroup","EFSFileSystem","EFSMountTarget1","EFSMountTarget2" ]
    },

    "Ec2InstanceApp1" : {
      "Type" : "AWS::EC2::Instance",
      "Properties" : {
        "ImageId" :  { "Fn::FindInMap" : [ "AWSRegionMap", { "Ref" : "AWS::Region" }, "appAMI"]},
        "InstanceType" : {"Ref" : "InstanceType" },
        "IamInstanceProfile" : {"Ref" : "LululemonInstanceProfile"},        
        "SecurityGroupIds" : [{ "Ref": "LululemonVPCSecurityGroup" }, { "Ref" : "LululemonAppSecurityGroup" }],
        "SubnetId" : {"Ref" : "AppSubnet1" },
        "KeyName" : {"Ref" : "KeyName" },
        "Tags" : [
          { 
            "Key" : "Name",
            "Value" : {"Fn::Join": ["-",[ {"Ref": "AWS::StackName"},"App1"]]}
          }
        ],
        "UserData" : { "Fn::Base64" : { "Fn::Join" : ["", [
           "#!/bin/bash -v\n",
           "yum -y install nfs-utils aws-cfn-bootstrap\n",
           "##Check if /z50 NFS mount is mounted\n",
           "if [ -e ",{ "Ref" : "EFSNFSMountPoint" },"] ; then umount ",{ "Ref" : "EFSNFSMountPoint" }," ; rm -fR ",{ "Ref" : "EFSNFSMountPoint" },"; grep -v ",{ "Ref" : "EFSNFSMountPoint" }," '/etc/fstab' > '/etc/fstab.clean' ; mv /etc/fstab /etc/fstab.orig ; mv /etc/fstab.clean /etc/fstab ; else echo ",{ "Ref" : "EFSNFSMountPoint" }," not mounted ; fi\n",           "cd /; mkdir ",{ "Ref" : "EFSNFSMountPoint" },"\n",
           "## Wait for EFS DNS to propagate\n",           
           "nslookup ",{ "Ref" : "EFSFileSystem" },".efs.",{ "Ref" : "AWS::Region" },".amazonaws.com; while [ $? -ne 0 ]; do sleep 10; echo waiting for dns; nslookup ",{ "Ref" : "EFSFileSystem" },".efs.",{ "Ref" : "AWS::Region" },".amazonaws.com; done\n",
           "mount -t nfs4 -o nfsvers=4.1,rsize=1048576,wsize=1048576,hard,timeo=600,retrans=2 ",{ "Ref" : "EFSFileSystem" },".efs.",{ "Ref" : "AWS::Region" },".amazonaws.com:/ ",{ "Ref" : "EFSNFSMountPoint" },"\n",
           "## Wait for EBS mount to become available before layering on file system\n",
           "while [ ! -e /dev/xvdb ]; do echo waiting for /dev/xvdb to attach; sleep 10; done\n",
           "file -s /dev/xvdb\n",
           "mkfs -t ext4 /dev/xvdb\n",
           "mkdir /opt\n",
           "mount /dev/xvdb /opt\n",
           "echo \"/dev/xvdb /opt ext4 defaults,nofail 0 2\" >> /etc/fstab\n",
           "echo \"",{ "Ref" : "EFSFileSystem" },".efs.",{ "Ref" : "AWS::Region" },".amazonaws.com:/ /",{ "Ref" : "EFSNFSMountPoint" }," nfs4 nfsvers=4.1,rsize=1048576,wsize=1048576,hard,timeo=600,retrans=2 0 0\" >> /etc/fstab\n"           
        ]]}}
      },
      "DependsOn": [ "EFSMountTargetSecurityGroup","EFSFileSystem","EFSMountTarget1","EFSMountTarget2" ]
    },


    "Ec2InstanceEndeca1" : {
      "Type" : "AWS::EC2::Instance",
      "Properties" : {
        "ImageId" :  { "Fn::FindInMap" : [ "AWSRegionMap", { "Ref" : "AWS::Region" }, "endecaPreviewAMI"]},
        "InstanceType" : {"Ref" : "InstanceType" },
        "IamInstanceProfile" : {"Ref" : "LululemonInstanceProfile"},        
        "SecurityGroupIds" : [{ "Ref": "LululemonVPCSecurityGroup" }, { "Ref" : "LululemonEndecaSecurityGroup" }],
        "SubnetId" : {"Ref" : "AppSubnet1" },
        "KeyName" : {"Ref" : "KeyName" },
        "Tags" : [
          { 
            "Key" : "Name",
            "Value" : {"Fn::Join": ["-",[ {"Ref": "AWS::StackName"},"Endeca1"]]}
          }
        ],
        "UserData" : { "Fn::Base64" : { "Fn::Join" : ["", [
           "#!/bin/bash -v\n",
           "yum -y install nfs-utils aws-cfn-bootstrap\n",
           "##Check if /z50 NFS mount is mounted\n",
           "if [ -e ",{ "Ref" : "EFSNFSMountPoint" },"] ; then umount ",{ "Ref" : "EFSNFSMountPoint" }," ; rm -fR ",{ "Ref" : "EFSNFSMountPoint" },"; grep -v ",{ "Ref" : "EFSNFSMountPoint" }," '/etc/fstab' > '/etc/fstab.clean' ; mv /etc/fstab /etc/fstab.orig ; mv /etc/fstab.clean /etc/fstab ; else echo ",{ "Ref" : "EFSNFSMountPoint" }," not mounted ; fi\n",           "cd /; mkdir ",{ "Ref" : "EFSNFSMountPoint" },"\n",
           "## Wait for EFS DNS to propagate\n",           
           "nslookup ",{ "Ref" : "EFSFileSystem" },".efs.",{ "Ref" : "AWS::Region" },".amazonaws.com; while [ $? -ne 0 ]; do sleep 10; echo waiting for dns; nslookup ",{ "Ref" : "EFSFileSystem" },".efs.",{ "Ref" : "AWS::Region" },".amazonaws.com; done\n",
           "mount -t nfs4 -o nfsvers=4.1,rsize=1048576,wsize=1048576,hard,timeo=600,retrans=2 ",{ "Ref" : "EFSFileSystem" },".efs.",{ "Ref" : "AWS::Region" },".amazonaws.com:/ /",{ "Ref" : "EFSNFSMountPoint" },"\n",
           "## Wait for EBS mount to become available before layering on file system\n",
           "while [ ! -e /dev/xvdb ]; do echo waiting for /dev/xvdb to attach; sleep 10; done\n",
           "file -s /dev/xvdb\n",
           "mkfs -t ext4 /dev/xvdb\n",
           "mkdir /opt\n",
           "mount /dev/xvdb /opt\n",
           "echo \"/dev/xvdb /opt ext4 defaults,nofail 0 2\" >> /etc/fstab\n",
           "echo \"",{ "Ref" : "EFSFileSystem" },".efs.",{ "Ref" : "AWS::Region" },".amazonaws.com:/ /",{ "Ref" : "EFSNFSMountPoint" }," nfs4 nfsvers=4.1,rsize=1048576,wsize=1048576,hard,timeo=600,retrans=2 0 0\" >> /etc/fstab\n"           
        ]]}}
      },
      "DependsOn": [ "EFSMountTargetSecurityGroup","EFSFileSystem","EFSMountTarget1","EFSMountTarget2" ]
    },

    "Ec2InstanceApp2" : {
      "Type" : "AWS::EC2::Instance",
      "Properties" : {
        "ImageId" :   { "Fn::FindInMap" : [ "AWSRegionMap", { "Ref" : "AWS::Region" }, "appAMI"]},
        "InstanceType" : {"Ref" : "InstanceType" },
        "IamInstanceProfile" : {"Ref" : "LululemonInstanceProfile"},        
        "SecurityGroupIds" : [{ "Ref": "LululemonVPCSecurityGroup" }, { "Ref" : "LululemonAppSecurityGroup" }],
        "SubnetId" : {"Ref" : "AppSubnet2" },
        "KeyName" : {"Ref" : "KeyName" },
        "Tags" : [
          { 
            "Key" : "Name",
            "Value" : {"Fn::Join": ["-",[ {"Ref": "AWS::StackName"},"App2"]]}
          }
        ],
        "UserData" : { "Fn::Base64" : { "Fn::Join" : ["", [
           "#!/bin/bash -v\n",
           "yum -y install nfs-utils aws-cfn-bootstrap\n",
           "##Check if /z50 NFS mount is mounted\n",
           "if [ -e ",{ "Ref" : "EFSNFSMountPoint" },"] ; then umount ",{ "Ref" : "EFSNFSMountPoint" }," ; rm -fR ",{ "Ref" : "EFSNFSMountPoint" },"; grep -v ",{ "Ref" : "EFSNFSMountPoint" }," '/etc/fstab' > '/etc/fstab.clean' ; mv /etc/fstab /etc/fstab.orig ; mv /etc/fstab.clean /etc/fstab ; else echo ",{ "Ref" : "EFSNFSMountPoint" }," not mounted ; fi\n",           "cd /; mkdir ",{ "Ref" : "EFSNFSMountPoint" },"\n",
           "## Wait a few seconds for EFS DNS to propagate\n",
           "sleep 90\n",           
           "mount -t nfs4 -o nfsvers=4.1,rsize=1048576,wsize=1048576,hard,timeo=600,retrans=2 ",{ "Ref" : "EFSFileSystem" },".efs.",{ "Ref" : "AWS::Region" },".amazonaws.com:/ ",{ "Ref" : "EFSNFSMountPoint" },"\n",
           "## Wait for EBS mount to become available before layering on file system\n",
           "while [ ! -e /dev/xvdb ]; do echo waiting for /dev/xvdb to attach; sleep 10; done\n",
           "file -s /dev/xvdb\n",
           "mkfs -t ext4 /dev/xvdb\n",
           "mkdir /opt\n",
           "mount /dev/xvdb /opt\n",
           "echo \"/dev/xvdb /opt ext4 defaults,nofail 0 2\" >> /etc/fstab\n",
           "echo \"",{ "Ref" : "EFSFileSystem" },".efs.",{ "Ref" : "AWS::Region" },".amazonaws.com:/ /",{ "Ref" : "EFSNFSMountPoint" }," nfs4 nfsvers=4.1,rsize=1048576,wsize=1048576,hard,timeo=600,retrans=2 0 0\" >> /etc/fstab\n"           
        ]]}}
      },
      "DependsOn": [ "EFSMountTargetSecurityGroup","EFSFileSystem","EFSMountTarget1","EFSMountTarget2" ]
    },


    "Ec2InstanceEndeca2" : {
      "Type" : "AWS::EC2::Instance",
      "Properties" : {
        "ImageId" :   { "Fn::FindInMap" : [ "AWSRegionMap", { "Ref" : "AWS::Region" }, "endecaLiveAMI"]},
        "InstanceType" : {"Ref" : "InstanceType" },
        "IamInstanceProfile" : {"Ref" : "LululemonInstanceProfile"},        
        "SecurityGroupIds" : [{ "Ref": "LululemonVPCSecurityGroup" }, { "Ref" : "LululemonEndecaSecurityGroup" }],
        "SubnetId" : {"Ref" : "AppSubnet2" },
        "KeyName" : {"Ref" : "KeyName" },
        "Tags" : [
          { 
            "Key" : "Name",
            "Value" : {"Fn::Join": ["-",[ {"Ref": "AWS::StackName"},"Endeca2"]]}
          }
        ],
        "UserData" : { "Fn::Base64" : { "Fn::Join" : ["", [
           "#!/bin/bash -v\n",
           "yum -y install nfs-utils aws-cfn-bootstrap\n",
           "##Check if /z50 NFS mount is mounted\n",
           "if [ -e ",{ "Ref" : "EFSNFSMountPoint" },"] ; then umount ",{ "Ref" : "EFSNFSMountPoint" }," ; rm -fR ",{ "Ref" : "EFSNFSMountPoint" },"; grep -v ",{ "Ref" : "EFSNFSMountPoint" }," '/etc/fstab' > '/etc/fstab.clean' ; mv /etc/fstab /etc/fstab.orig ; mv /etc/fstab.clean /etc/fstab ; else echo ",{ "Ref" : "EFSNFSMountPoint" }," not mounted ; fi\n",           "cd /; mkdir ",{ "Ref" : "EFSNFSMountPoint" },"\n",
           "## Wait a few seconds for EFS DNS to propagate\n",
           "sleep 90\n",           
           "mount -t nfs4 -o nfsvers=4.1,rsize=1048576,wsize=1048576,hard,timeo=600,retrans=2 ",{ "Ref" : "EFSFileSystem" },".efs.",{ "Ref" : "AWS::Region" },".amazonaws.com:/ ",{ "Ref" : "EFSNFSMountPoint" },"\n",
           "## Wait for EBS mount to become available before layering on file system\n",
           "while [ ! -e /dev/xvdb ]; do echo waiting for /dev/xvdb to attach; sleep 10; done\n",
           "file -s /dev/xvdb\n",
           "mkfs -t ext4 /dev/xvdb\n",
           "mkdir /opt\n",
           "mount /dev/xvdb /opt\n",
           "echo \"/dev/xvdb /opt ext4 defaults,nofail 0 2\" >> /etc/fstab\n",
           "echo \"",{ "Ref" : "EFSFileSystem" },".efs.",{ "Ref" : "AWS::Region" },".amazonaws.com:/ /",{ "Ref" : "EFSNFSMountPoint" }," nfs4 nfsvers=4.1,rsize=1048576,wsize=1048576,hard,timeo=600,retrans=2 0 0\" >> /etc/fstab\n"           
        ]]}}
      },
      "DependsOn": [ "EFSMountTargetSecurityGroup","EFSFileSystem","EFSMountTarget1","EFSMountTarget2" ]
    },

    "LululemonVPCSecurityGroup" : {
      "Type" : "AWS::EC2::SecurityGroup",
      "Properties" : {
        "GroupDescription" : "Enable SSH access to VpcId",
        "VpcId" : { "Ref" : "VPCID" },
        "SecurityGroupIngress" : [ { "IpProtocol" : "tcp", "FromPort" : "22", "ToPort" : "22", "CidrIp" : { "Fn::ImportValue" : {"Fn::Sub": "${VPCCloudFormationStackName}-VPCCIDR" } } }, 
                                   { "IpProtocol" : "tcp", "FromPort" : "22", "ToPort" : "22", "CidrIp" : { "Ref" : "CorpCIDR" } }
                                 ]
      }
    },

    "LululemonELBALBSecurityGroup" : {
      "Type" : "AWS::EC2::SecurityGroup",
      "Properties" : {
        "GroupDescription" : "Enable inbound access to ELB/ALB",
        "VpcId" : { "Ref" : "VPCID" },
        "SecurityGroupIngress" : [ { "IpProtocol" : "tcp", "FromPort" : "443", "ToPort" : "443", "CidrIp" : { "Fn::ImportValue" : {"Fn::Sub": "${VPCCloudFormationStackName}-VPCCIDR" } } },
                                   { "IpProtocol" : "tcp", "FromPort" : "443", "ToPort" : "443", "CidrIp" : { "Ref" : "CorpCIDR" } },
                                   { "IpProtocol" : "tcp", "FromPort" : "80", "ToPort" : "80", "CidrIp" : { "Fn::ImportValue" : {"Fn::Sub": "${VPCCloudFormationStackName}-VPCCIDR" } } },
                                   { "IpProtocol" : "tcp", "FromPort" : "80", "ToPort" : "80", "CidrIp" : { "Ref" : "CorpCIDR" } }
                                 ]
      }
    },

    "LululemonWebSecurityGroup" : {
      "Type" : "AWS::EC2::SecurityGroup",
      "Properties" : {
        "GroupDescription" : "Enable inbound access to Web/OHS servers",
        "VpcId" : { "Ref" : "VPCID" },
        "SecurityGroupIngress" : [ { "IpProtocol" : "tcp", "FromPort" : "5015", "ToPort" : "5015", "CidrIp" : { "Fn::ImportValue" : {"Fn::Sub": "${VPCCloudFormationStackName}-VPCCIDR" } } },
                                   { "IpProtocol" : "tcp", "FromPort" : "5015", "ToPort" : "5015", "CidrIp" : { "Ref" : "CorpCIDR" } },
                                   { "IpProtocol" : "tcp", "FromPort" : "7001", "ToPort" : "7001", "CidrIp" : { "Fn::ImportValue" : {"Fn::Sub": "${VPCCloudFormationStackName}-VPCCIDR" } } },
                                   { "IpProtocol" : "tcp", "FromPort" : "7001", "ToPort" : "7001", "CidrIp" : { "Ref" : "CorpCIDR" } },
                                   { "IpProtocol" : "tcp", "FromPort" : "80", "ToPort" : "80", "CidrIp" : { "Fn::ImportValue" : {"Fn::Sub": "${VPCCloudFormationStackName}-VPCCIDR" } } },
                                   { "IpProtocol" : "tcp", "FromPort" : "80", "ToPort" : "80", "CidrIp" : { "Ref" : "CorpCIDR" } },
                                   { "IpProtocol" : "tcp", "FromPort" : "443", "ToPort" : "443", "CidrIp" : { "Fn::ImportValue" : {"Fn::Sub": "${VPCCloudFormationStackName}-VPCCIDR" } } },
                                   { "IpProtocol" : "tcp", "FromPort" : "443", "ToPort" : "443", "CidrIp" : { "Ref" : "CorpCIDR" } }
                                 ]
      }
    },

    "LululemonAppSecurityGroup" : {
      "Type" : "AWS::EC2::SecurityGroup",
      "Properties" : {
        "GroupDescription" : "Enable inbound access to instances",
        "VpcId" : { "Ref" : "VPCID" },
        "SecurityGroupIngress" : [ { "IpProtocol" : "tcp", "FromPort" : "8000", "ToPort" : "8050", "CidrIp" : { "Fn::ImportValue" : {"Fn::Sub": "${VPCCloudFormationStackName}-VPCCIDR" } } },
                                   { "IpProtocol" : "tcp", "FromPort" : "8000", "ToPort" : "8050", "CidrIp" : { "Ref" : "CorpCIDR" } },
                                   { "IpProtocol" : "tcp", "FromPort" : "8080", "ToPort" : "8080", "CidrIp" : { "Fn::ImportValue" : {"Fn::Sub": "${VPCCloudFormationStackName}-VPCCIDR" } } },
                                   { "IpProtocol" : "tcp", "FromPort" : "8080", "ToPort" : "8080", "CidrIp" : { "Ref" : "CorpCIDR" } },
                                   { "IpProtocol" : "tcp", "FromPort" : "8180", "ToPort" : "8180", "CidrIp" : { "Fn::ImportValue" : {"Fn::Sub": "${VPCCloudFormationStackName}-VPCCIDR" } } },
                                   { "IpProtocol" : "tcp", "FromPort" : "8180", "ToPort" : "8180", "CidrIp" : { "Ref" : "CorpCIDR" } },
                                   { "IpProtocol" : "tcp", "FromPort" : "8280", "ToPort" : "8280", "CidrIp" : { "Fn::ImportValue" : {"Fn::Sub": "${VPCCloudFormationStackName}-VPCCIDR" } } },
                                   { "IpProtocol" : "tcp", "FromPort" : "8280", "ToPort" : "8280", "CidrIp" : { "Ref" : "CorpCIDR" } },                                   
                                   { "IpProtocol" : "tcp", "FromPort" : "8480", "ToPort" : "8480", "CidrIp" : { "Fn::ImportValue" : {"Fn::Sub": "${VPCCloudFormationStackName}-VPCCIDR" } } },
                                   { "IpProtocol" : "tcp", "FromPort" : "8480", "ToPort" : "8480", "CidrIp" : { "Ref" : "CorpCIDR" } },
                                   { "IpProtocol" : "tcp", "FromPort" : "8680", "ToPort" : "8680", "CidrIp" : { "Fn::ImportValue" : {"Fn::Sub": "${VPCCloudFormationStackName}-VPCCIDR" } } },
                                   { "IpProtocol" : "tcp", "FromPort" : "8680", "ToPort" : "8680", "CidrIp" : { "Ref" : "CorpCIDR" } },
                                   { "IpProtocol" : "tcp", "FromPort" : "7001", "ToPort" : "7001", "CidrIp" : { "Fn::ImportValue" : {"Fn::Sub": "${VPCCloudFormationStackName}-VPCCIDR" } } },
                                   { "IpProtocol" : "tcp", "FromPort" : "7001", "ToPort" : "7001", "CidrIp" : { "Ref" : "CorpCIDR" } },
                                   { "IpProtocol" : "tcp", "FromPort" : "5556", "ToPort" : "5556", "CidrIp" : { "Fn::ImportValue" : {"Fn::Sub": "${VPCCloudFormationStackName}-VPCCIDR" } } },
                                   { "IpProtocol" : "tcp", "FromPort" : "5556", "ToPort" : "5556", "CidrIp" : { "Ref" : "CorpCIDR" } }
                                 ]
      }
    },

    "LululemonEndecaSecurityGroup" : {
      "Type" : "AWS::EC2::SecurityGroup",
      "Properties" : {
        "GroupDescription" : "Enable inbound access to Endeca servers",
        "VpcId" : { "Ref" : "VPCID" },
        "SecurityGroupIngress" : [ { "IpProtocol" : "tcp", "FromPort" : "5032", "ToPort" : "5032", "CidrIp" : { "Fn::ImportValue" : {"Fn::Sub": "${VPCCloudFormationStackName}-VPCCIDR" } } },
                                   { "IpProtocol" : "tcp", "FromPort" : "5032", "ToPort" : "5032", "CidrIp" : { "Ref" : "CorpCIDR" } },
                                   { "IpProtocol" : "tcp", "FromPort" : "8006", "ToPort" : "8006", "CidrIp" : { "Fn::ImportValue" : {"Fn::Sub": "${VPCCloudFormationStackName}-VPCCIDR" } } },
                                   { "IpProtocol" : "tcp", "FromPort" : "8006", "ToPort" : "8006", "CidrIp" : { "Ref" : "CorpCIDR" } },
                                   { "IpProtocol" : "tcp", "FromPort" : "8500", "ToPort" : "8500", "CidrIp" : { "Fn::ImportValue" : {"Fn::Sub": "${VPCCloudFormationStackName}-VPCCIDR" } } },
                                   { "IpProtocol" : "tcp", "FromPort" : "8500", "ToPort" : "8500", "CidrIp" : { "Ref" : "CorpCIDR" } },
                                   { "IpProtocol" : "tcp", "FromPort" : "8888", "ToPort" : "8888", "CidrIp" : { "Fn::ImportValue" : {"Fn::Sub": "${VPCCloudFormationStackName}-VPCCIDR" } } },
                                   { "IpProtocol" : "tcp", "FromPort" : "8888", "ToPort" : "8888", "CidrIp" : { "Ref" : "CorpCIDR" } },
                                   { "IpProtocol" : "tcp", "FromPort" : "16001", "ToPort" : "16005", "CidrIp" : { "Fn::ImportValue" : {"Fn::Sub": "${VPCCloudFormationStackName}-VPCCIDR" } } },
                                   { "IpProtocol" : "tcp", "FromPort" : "16001", "ToPort" : "16005", "CidrIp" : { "Ref" : "CorpCIDR" } },
                                   { "IpProtocol" : "tcp", "FromPort" : "16010", "ToPort" : "16010", "CidrIp" : { "Fn::ImportValue" : {"Fn::Sub": "${VPCCloudFormationStackName}-VPCCIDR" } } },
                                   { "IpProtocol" : "tcp", "FromPort" : "16010", "ToPort" : "16010", "CidrIp" : { "Ref" : "CorpCIDR" } },
                                   { "IpProtocol" : "tcp", "FromPort" : "5040", "ToPort" : "5049", "CidrIp" : { "Fn::ImportValue" : {"Fn::Sub": "${VPCCloudFormationStackName}-VPCCIDR" } }
                                    },
                                   { "IpProtocol" : "tcp", "FromPort" : "5040", "ToPort" : "5049", "CidrIp" : { "Ref" : "CorpCIDR" } }
                                 ]
      }
    },

    "ElasticLoadBalancerBBR" : {
      "Type" : "AWS::ElasticLoadBalancing::LoadBalancer",
      "Properties" : {
        "Subnets" : [ { "Ref" : "AppSubnet1" }, { "Ref" : "AppSubnet2" } ],
        "CrossZone" : "true",
        "Scheme" : "internal",
        "SecurityGroups" : [ { "Ref" : "LululemonVPCSecurityGroup" }, { "Ref" : "LululemonELBALBSecurityGroup"} ],
        "Instances" : [
            { "Ref" : "Ec2InstanceApp1" },
            { "Ref" : "Ec2InstanceApp2" }
        ],
        "Listeners" : [ 
          {
            "LoadBalancerPort" : "80",
            "InstancePort" : "8680",
            "Protocol" : "HTTP"
          },
          {
          "LoadBalancerPort" : "443",
          "InstancePort" : "8680",
          "Protocol" : "HTTPS",
          "SSLCertificateId" : { "Fn::FindInMap" : [ "AWSRegionMap", { "Ref" : "AWS::Region" }, "SSLCertificateARN"]}
         }
        ],
        "HealthCheck" : {
          "Target" : "HTTP:8680/",
          "HealthyThreshold" : "2",
          "UnhealthyThreshold" : "5",
          "Interval" : "10",
          "Timeout" : "5"
        }
      }
    },

    "ElasticLoadBalancerCatalog" : {
      "Type" : "AWS::ElasticLoadBalancing::LoadBalancer",
      "Properties" : {
        "Subnets" : [ { "Ref" : "AppSubnet1" }, { "Ref" : "AppSubnet2" } ],
        "CrossZone" : "true",
        "Scheme" : "internal",
        "SecurityGroups" : [ { "Ref" : "LululemonVPCSecurityGroup" }, { "Ref" : "LululemonELBALBSecurityGroup"} ],
        "Instances" : [
            { "Ref" : "Ec2InstanceApp1" },
            { "Ref" : "Ec2InstanceApp2" }
        ],
        "Listeners" : [ 
          {
            "LoadBalancerPort" : "80",
            "InstancePort" : "8180",
            "Protocol" : "HTTP"
          },
          {
          "LoadBalancerPort" : "443",
          "InstancePort" : "8180",
          "Protocol" : "HTTPS",
          "SSLCertificateId" : { "Fn::FindInMap" : [ "AWSRegionMap", { "Ref" : "AWS::Region" }, "SSLCertificateARN"]}
         }
        ],
        "HealthCheck" : {
          "Target" : "HTTP:8180/",
          "HealthyThreshold" : "2",
          "UnhealthyThreshold" : "5",
          "Interval" : "10",
          "Timeout" : "5"
        }
      }
    },

    "ElasticLoadBalancerCallCenter" : {
      "Type" : "AWS::ElasticLoadBalancing::LoadBalancer",
      "Properties" : {
        "Subnets" : [ { "Ref" : "AppSubnet1" }, { "Ref" : "AppSubnet2" } ],
        "CrossZone" : "true",
        "Scheme" : "internal",
        "SecurityGroups" : [ { "Ref" : "LululemonVPCSecurityGroup" }, { "Ref" : "LululemonELBALBSecurityGroup"} ],
        "Instances" : [
            { "Ref" : "Ec2InstanceApp1" },
            { "Ref" : "Ec2InstanceApp2" }
        ],
        "Listeners" : [ 
          {
            "LoadBalancerPort" : "80",
            "InstancePort" : "8280",
            "Protocol" : "HTTP"
          },
          {
          "LoadBalancerPort" : "443",
          "InstancePort" : "8280",
          "Protocol" : "HTTPS",
          "SSLCertificateId" : { "Fn::FindInMap" : [ "AWSRegionMap", { "Ref" : "AWS::Region" }, "SSLCertificateARN"]}
         }
        ],
        "HealthCheck" : {
          "Target" : "HTTP:8280/",
          "HealthyThreshold" : "2",
          "UnhealthyThreshold" : "5",
          "Interval" : "10",
          "Timeout" : "5"
        }
      }
    },

    "ElasticLoadBalancerShop" : {
      "Type" : "AWS::ElasticLoadBalancing::LoadBalancer",
      "Properties" : {
        "Subnets" : [ { "Ref" : "AppSubnet1" }, { "Ref" : "AppSubnet2" } ],
        "CrossZone" : "true",
        "Scheme" : "internal",
        "SecurityGroups" : [ { "Ref" : "LululemonVPCSecurityGroup" }, { "Ref" : "LululemonELBALBSecurityGroup"} ],
        "Instances" : [
            { "Ref" : "Ec2InstanceApp1" },
            { "Ref" : "Ec2InstanceApp2" }
        ],
        "Listeners" : [ 
          {
            "LoadBalancerPort" : "80",
            "InstancePort" : "8680",
            "Protocol" : "HTTP"
          },
          {
          "LoadBalancerPort" : "443",
          "InstancePort" : "8680",
          "Protocol" : "HTTPS",
          "SSLCertificateId" : { "Fn::FindInMap" : [ "AWSRegionMap", { "Ref" : "AWS::Region" }, "SSLCertificateARN"]}
         }
        ],
        "HealthCheck" : {
          "Target" : "HTTP:8680/",
          "HealthyThreshold" : "2",
          "UnhealthyThreshold" : "5",
          "Interval" : "10",
          "Timeout" : "5"
        }
      }
    },

    "StorefrontALB" : {
      "Type" : "AWS::ElasticLoadBalancingV2::LoadBalancer",
      "Properties" : {
        "Subnets" : [ { "Ref" : "AppSubnet1" }, { "Ref" : "AppSubnet2" } ],
        "Scheme" : "internal",
        "SecurityGroups" : [ { "Ref" : "LululemonELBALBSecurityGroup"} ],
        "Tags" : [
          { "Key" : "Name", "Value": "Lululemon-StorefrontALB" },
          { "Key" : "Environment", "Value" : "" }
        ]
      }
    },

    "StorefrontALBHTTPListener": {
      "Type": "AWS::ElasticLoadBalancingV2::Listener",
      "Properties": {
        "DefaultActions": [{
          "Type": "forward",
          "TargetGroupArn": { "Ref": "StorefrontALBEcomTargetGroup" }
        }],
        "LoadBalancerArn": { "Ref": "StorefrontALB" },
        "Port": "80",
        "Protocol": "HTTP"
      }
    },

    "StorefrontALBSecureListener": {
      "Type": "AWS::ElasticLoadBalancingV2::Listener",
      "Properties": {
        "Certificates": [ {"CertificateArn" : { "Fn::FindInMap" : [ "AWSRegionMap", { "Ref" : "AWS::Region" }, "SSLCertificateARN"]}} ],
        "DefaultActions": [{
          "Type": "forward",
          "TargetGroupArn": { "Ref": "StorefrontALBEcomTargetGroup" }
        }],
        "LoadBalancerArn": { "Ref": "StorefrontALB" },
        "Port": "443",
        "Protocol": "HTTPS"
      }
    },

    "StorefrontALBHTTPStaticListenerRule": {
      "Type": "AWS::ElasticLoadBalancingV2::ListenerRule",
      "Properties": {
        "Actions": [{
          "Type": "forward",
          "TargetGroupArn": { "Ref": "StorefrontALBStaticTargetGroup" }
        }],
        "Conditions": [{
          "Field": "path-pattern",
          "Values": [ "/lulustatic/*" ]
        }],
        "ListenerArn": { "Ref": "StorefrontALBHTTPListener" },
        "Priority": 2
      }
    },    

    "StorefrontALBSecureStaticListenerRule": {
      "Type": "AWS::ElasticLoadBalancingV2::ListenerRule",
      "Properties": {
        "Actions": [{
          "Type": "forward",
          "TargetGroupArn": { "Ref": "StorefrontALBStaticTargetGroup" }
        }],
        "Conditions": [{
          "Field": "path-pattern",
          "Values": [ "/lulustatic/*" ]
        }],
        "ListenerArn": { "Ref": "StorefrontALBSecureListener" },
        "Priority": 2
      }
    },       

    "StorefrontALBStaticTargetGroup" : {
      "Type" : "AWS::ElasticLoadBalancingV2::TargetGroup",
      "Properties" : {
        "HealthCheckIntervalSeconds": 30,
        "HealthCheckProtocol": "HTTP",
        "HealthCheckTimeoutSeconds": 10,
        "HealthyThresholdCount": 4,
        "Matcher" : {
          "HttpCode" : "200"
        },
        "Name": {"Fn::Join": ["-",[ {"Ref": "AWS::StackName"},"StorefrontStaticTG"]]},
        "Port": 80,
        "Protocol": "HTTP",
        "TargetGroupAttributes": [{
          "Key": "deregistration_delay.timeout_seconds",
          "Value": "20"
        }],
        "Targets": [
          { "Id": {"Ref" : "Ec2InstanceWeb1"}, "Port": 80 },
          { "Id": {"Ref" : "Ec2InstanceWeb2"}, "Port": 80 }
        ],
        "UnhealthyThresholdCount": 3,
        "VpcId": {"Ref" : "VPCID"},
        "Tags" : [
          { "Key" : "Name", "Value" : {"Fn::Join": ["-",[ {"Ref": "AWS::StackName"},"ALBStorefrontStaticTG"]]} }
        ]
      }
    },

    "StorefrontALBEcomTargetGroup" : {
      "Type" : "AWS::ElasticLoadBalancingV2::TargetGroup",
      "Properties" : {
        "HealthCheckIntervalSeconds": 30,
        "HealthCheckProtocol": "HTTP",
        "HealthCheckTimeoutSeconds": 10,
        "HealthyThresholdCount": 4,
        "Matcher" : {
          "HttpCode" : "200"
        },
        "Name": {"Fn::Join": ["-",[ {"Ref": "AWS::StackName"},"StorefrontEcomTG"]]},
        "Port": 80,
        "Protocol": "HTTP",
        "TargetGroupAttributes": [{
          "Key": "deregistration_delay.timeout_seconds",
          "Value": "20"
        }],
        "Targets": [
          { "Id": {"Ref" : "Ec2InstanceApp1"}, "Port": 80 },
          { "Id": {"Ref" : "Ec2InstanceApp2"}, "Port": 80 }
        ],
        "UnhealthyThresholdCount": 3,
        "VpcId": {"Ref" : "VPCID"},
        "Tags" : [
          { "Key" : "Name", "Value" : {"Fn::Join": ["-",[ {"Ref": "AWS::StackName"},"ALBStorefrontEcomTG"]]} }        ]
      }
    },

    "PreviewALB" : {
      "Type" : "AWS::ElasticLoadBalancingV2::LoadBalancer",
      "Properties" : {
        "Subnets" : [ { "Ref" : "AppSubnet1" }, { "Ref" : "AppSubnet2" } ],
        "Scheme" : "internal",
        "SecurityGroups" : [ { "Ref" : "LululemonELBALBSecurityGroup"} ],
        "Tags" : [
          { "Key" : "Name", "Value": "Lululemon-PreviewALB" },
          { "Key" : "Environment", "Value" : "" }
        ]
      }
    },

    "PreviewALBHTTPListener": {
      "Type": "AWS::ElasticLoadBalancingV2::Listener",
      "Properties": {
        "DefaultActions": [{
          "Type": "forward",
          "TargetGroupArn": { "Ref": "PreviewALBEcomTargetGroup" }
        }],
        "LoadBalancerArn": { "Ref": "PreviewALB" },
        "Port": "80",
        "Protocol": "HTTP"
      }
    },

    "PreviewALBSecureListener": {
      "Type": "AWS::ElasticLoadBalancingV2::Listener",
      "Properties": {
        "Certificates": [ {"CertificateArn" : { "Fn::FindInMap" : [ "AWSRegionMap", { "Ref" : "AWS::Region" }, "SSLCertificateARN"]}} ],
        "DefaultActions": [{
          "Type": "forward",
          "TargetGroupArn": { "Ref": "PreviewALBEcomTargetGroup" }
        }],
        "LoadBalancerArn": { "Ref": "PreviewALB" },
        "Port": "443",
        "Protocol": "HTTPS"
      }
    },

    "PreviewALBHTTPStaticListenerRule": {
      "Type": "AWS::ElasticLoadBalancingV2::ListenerRule",
      "Properties": {
        "Actions": [{
          "Type": "forward",
          "TargetGroupArn": { "Ref": "PreviewALBStaticTargetGroup" }
        }],
        "Conditions": [{
          "Field": "path-pattern",
          "Values": [ "/lulustatic/*" ]
        }],
        "ListenerArn": { "Ref": "PreviewALBHTTPListener" },
        "Priority": 2
      }
    },    

    "PreviewALBSecureStaticListenerRule": {
      "Type": "AWS::ElasticLoadBalancingV2::ListenerRule",
      "Properties": {
        "Actions": [{
          "Type": "forward",
          "TargetGroupArn": { "Ref": "PreviewALBStaticTargetGroup" }
        }],
        "Conditions": [{
          "Field": "path-pattern",
          "Values": [ "/lulustatic/*" ]
        }],
        "ListenerArn": { "Ref": "PreviewALBSecureListener" },
        "Priority": 2
      }
    },       

    "PreviewALBStaticTargetGroup" : {
      "Type" : "AWS::ElasticLoadBalancingV2::TargetGroup",
      "Properties" : {
        "HealthCheckIntervalSeconds": 30,
        "HealthCheckProtocol": "HTTP",
        "HealthCheckTimeoutSeconds": 10,
        "HealthyThresholdCount": 4,
        "Matcher" : {
          "HttpCode" : "200"
        },
        "Name": {"Fn::Join": ["-",[ {"Ref": "AWS::StackName"},"PreviewStaticTG"]]},
        "Port": 80,
        "Protocol": "HTTP",
        "TargetGroupAttributes": [{
          "Key": "deregistration_delay.timeout_seconds",
          "Value": "20"
        }],
        "Targets": [
          { "Id": {"Ref" : "Ec2InstanceWeb1"}, "Port": 80 },
          { "Id": {"Ref" : "Ec2InstanceWeb2"}, "Port": 80 }
        ],
        "UnhealthyThresholdCount": 3,
        "VpcId": {"Ref" : "VPCID"},
        "Tags" : [
          { "Key" : "Name", "Value" : {"Fn::Join": ["-",[ {"Ref": "AWS::StackName"},"ALBPreviewStaticTG"]]} }
        ]
      }
    },

    "PreviewALBEcomTargetGroup" : {
      "Type" : "AWS::ElasticLoadBalancingV2::TargetGroup",
      "Properties" : {
        "HealthCheckIntervalSeconds": 30,
        "HealthCheckProtocol": "HTTP",
        "HealthCheckTimeoutSeconds": 10,
        "HealthyThresholdCount": 4,
        "Matcher" : {
          "HttpCode" : "200"
        },
        "Name": {"Fn::Join": ["-",[ {"Ref": "AWS::StackName"},"PreviewEcomTG"]]},
        "Port": 80,
        "Protocol": "HTTP",
        "TargetGroupAttributes": [{
          "Key": "deregistration_delay.timeout_seconds",
          "Value": "20"
        }],
        "Targets": [
          { "Id": {"Ref" : "Ec2InstanceApp1"}, "Port": 80 },
          { "Id": {"Ref" : "Ec2InstanceApp2"}, "Port": 80 }
        ],
        "UnhealthyThresholdCount": 3,
        "VpcId": {"Ref" : "VPCID"},
        "Tags" : [
          { "Key" : "Name", "Value" : {"Fn::Join": ["-",[ {"Ref": "AWS::StackName"},"ALBPreviewEcomTG"]]} }        ]
      }
    },
    
    "LululemonRole": {
        "Type": "AWS::IAM::Role",
         "Properties": {
           "AssumeRolePolicyDocument": {
              "Version" : "2012-10-17",
              "Statement": [ {
                "Effect": "Allow",
                "Principal": {
                    "Service": [ "ec2.amazonaws.com" ]
                },
                "Action": [ "sts:AssumeRole" ]
              } ]
           },
           "Path": "/",
           "RoleName": {"Fn::Join": ["", [{"Ref": "AWS::StackName"}, "LuluRole"]]},
           "ManagedPolicyArns": [
                "arn:aws:iam::aws:policy/ReadOnlyAccess"
           ]
         }
    },

    "LululemonInstanceProfile" : {
        "Type" : "AWS::IAM::InstanceProfile",
        "Properties" : {
          "Path" : "/",
          "Roles" : [ { "Ref" : "LululemonRole" } ]
        }
    }

  },

  "Outputs" : {
    "ElasticLoadBalancerBBRDNSName" : {
      "Description" : "DNS name of ElasticLoadBalancerBBR",
      "Value" : { "Fn::GetAtt" : [ "ElasticLoadBalancerBBR", "DNSName" ] }
    },
    "ElasticLoadBalancerCatalogDNSName" : {
      "Description" : "DNS name of ElasticLoadBalancerBBR",
      "Value" : { "Fn::GetAtt" : [ "ElasticLoadBalancerCatalog", "DNSName" ] }
    },
    "ElasticLoadBalancerCallCenterDNSName" : {
      "Description" : "DNS name of ElasticLoadBalancerBBR",
      "Value" : { "Fn::GetAtt" : [ "ElasticLoadBalancerCallCenter", "DNSName" ] }
    },
    "ElasticLoadBalancerShopDNSName" : {
      "Description" : "DNS name of ElasticLoadBalancerBBR",
      "Value" : { "Fn::GetAtt" : [ "ElasticLoadBalancerShop", "DNSName" ] }
    },
    "ApplicationLoadBalancerStorefrontDNSName" : {
      "Description" : "DNS name of StorefrontALB",
      "Value" : { "Fn::GetAtt" : [ "StorefrontALB", "DNSName" ] }
    },
    "ApplicationLoadBalancerPreviewDNSName" : {
      "Description" : "DNS name of PreviewALB",
      "Value" : { "Fn::GetAtt" : [ "PreviewALB", "DNSName" ] }
    }
  }
}
