{
  "AWSTemplateFormatVersion" : "2010-09-09",

  "Description" : "Creates the Lululemon bastion & SGs for the Cisco CSR",

  "Parameters" : {
    "KeyName" : {
      "Description" : "Name of an existing EC2 Keypair to enable SSH access into the server",
      "Type" : "AWS::EC2::KeyPair::KeyName",
      "MinLength": "1",
      "MaxLength": "64",
      "AllowedPattern" : "[-_ a-zA-Z0-9]*",
      "ConstraintDescription" : "can contain only alphanumeric characters, spaces, dashes and underscores."
    },
    "InstanceType" : {
      "Description" : "The type of EC2 instance to launch",
      "Type" : "String",
      "Default" : "t2.micro",
      "AllowedValues" : [ "t2.micro","t2.small","t2.medium","t2.large","m4.large","m4.xlarge","m3.medium","m3.large"],
      "ConstraintDescription" : "must be a valid and allowed EC2 instance type."
    },
    "VolumeSize" : {
      "Description" : "The size of the EBS volume to attach to the instances (GB)",
      "Type" : "Number",
      "Default" : "15"
    },
    "VPCID": {
      "Description": "ID of the VPC where you want to provision the servers.",
      "Type": "AWS::EC2::VPC::Id"
    },
    "CorpCIDR" : {
      "Description" : "Please enter CIDR of the Lululemon corporate network (xxx.xxx.xxx.xxx/xx):",
        "Type": "String",
        "MinLength": "1",
        "Default": "10.128.0.0/10"
    },
    "ScalarCorpCIDR" : {
      "Description" : "Please enter CIDR of Scalar Toronto corporate network (xxx.xxx.xxx.xxx/xx):",
        "Type": "String",
        "MinLength": "1",
        "Default": "74.213.172.118/32"
    },              
    "VPCCIDR" : {
      "Description" : "Please enter VPCCIDR (xxx.xxx.xxx.xxx/xx):",
        "Type": "String",
        "MinLength": "1",
        "Default": "10.201.28.0/24"
    },    
    "WebSubnet1": {
        "Description": "ID of first private web subnet (e.g., subnet-a0246dcd)",
        "Type": "AWS::EC2::Subnet::Id"
    },
    "CSRSecurityGroupId": {
        "Description": "Security group generated by CSR1000v CF Template",
        "Type": "AWS::EC2::SecurityGroup::Id"
    }
  },
  "Mappings" : {
    "AWSInstanceType2Arch" : {
      "m4.large" : {"Arch" : "64" },
      "m4.xlarge" : {"Arch" : "64" },      
      "t2.micro" : {"Arch" : "64" },
      "t2.small" : {"Arch" : "64" },
      "t2.medium" : {"Arch" : "64" },
      "t2.large" : {"Arch" : "64" },
      "m3.medium" : {"Arch" : "64" },
      "m3.large" : {"Arch" : "64" },
      "t2.small" : {"Arch" : "64" }
    },
    "AWSRegionMap" : {
      "us-east-1" : {"64" : "ami-b63769a1" },
      "us-east-2" : {"64" : "ami-0932686c" },
      "us-west-1" : {"64" : "ami-6f68cf0f" }
    }
  },
  "Resources" : {
    "Ec2TransitBastionEIP" : {
      "Type": "AWS::EC2::EIP",
      "Properties" : {
        "InstanceId" : { "Ref" : "Ec2TransitBastion" }
      }
    },

    "Ec2TransitBastion" : {
      "Type" : "AWS::EC2::Instance",
      "Properties" : {
        "ImageId" :   { "Fn::FindInMap" : [ "AWSRegionMap", { "Ref" : "AWS::Region" }, 
                      { "Fn::FindInMap" : [ "AWSInstanceType2Arch", {"Ref" : "InstanceType"}, "Arch"] } ] },
        "InstanceType" : {"Ref" : "InstanceType" },
        "SecurityGroupIds" : [{ "Ref" : "CSRAdminSecurityGroup" }],
        "SubnetId" : {"Ref" : "WebSubnet1" },
        "KeyName" : {"Ref" : "KeyName" },
        "Tags" : [
          { 
            "Key" : "Name",
            "Value" : {"Fn::Join": ["-",[ {"Ref": "AWS::StackName"},"TransitBastion"]]}
          }
        ],
        "UserData" : { "Fn::Base64" : { "Fn::Join" : ["", [
           "#!/bin/bash -v\n",
           "yum -y install tftp-server\n",
           "sed -i 's/disable\\s*=\\s*yes/disable = no/'' /etc/xinetd.d/tftp\n",
           "chkconfig xinetd on; service xinetd start\n",           
        ]]}}
      }
    },

    "VolumeTransitBastion" : {
      "Type" : "AWS::EC2::Volume",
      "Properties" : {
        "Size" : {"Ref" : "VolumeSize" },
        "VolumeType" : "gp2",
        "AvailabilityZone" : { "Fn::GetAtt" : [ "Ec2TransitBastion", "AvailabilityZone" ]},
        "Tags" : [
          { 
            "Key" : "Name",
            "Value" : {"Fn::Join": ["-",[ {"Ref": "AWS::StackName"},"TransitBastion"]]} 
          }
        ]
      }
    },
    "MountPointWeb1" : {
      "Type" : "AWS::EC2::VolumeAttachment",
      "Properties" : {
        "InstanceId" : {"Ref" : "Ec2TransitBastion"},
        "VolumeId" : {"Ref" : "VolumeTransitBastion"},
        "Device" : "/dev/sdb"
      }
    },


    "CSRAdminSecurityGroup" : {
      "Type" : "AWS::EC2::SecurityGroup",
      "Properties" : {
        "GroupDescription" : "Enable inbound access to bastion",
        "VpcId" : { "Ref" : "VPCID" },
        "SecurityGroupIngress" : [ 
           { 
             "IpProtocol" : "tcp", 
             "FromPort" : "22", 
             "ToPort" : "22", 
             "CidrIp" : { "Ref" : "CorpCIDR" }
           },
           { 
             "IpProtocol" : "tcp", 
             "FromPort" : "22", 
             "ToPort" : "22", 
             "CidrIp" : { "Ref" : "ScalarCorpCIDR" }
           }           
        ],
        "Tags" : [
          { "Key" : "Name", "Value" : {"Fn::Join": ["-",[ {"Ref": "AWS::StackName"},"CSRAdminSecurityGroup"]]} }
        ]
      }
    },

    "CSRAdminSecurityGroupIngressSelf" : {
      "Type" : "AWS::EC2::SecurityGroupIngress",
      "Properties" : {
        "GroupId" : { "Ref" : "CSRAdminSecurityGroup" },
        "IpProtocol" : "tcp",
        "FromPort" : "0", 
        "ToPort" : "65535", 
        "SourceSecurityGroupId" : { "Ref" : "CSRSecurityGroupId" } 
      }
    }
  },

  "Outputs" : {

  }
}
